"","14","28","56","120","240","320","480"
"8",0.54228855721393,0.626865671641791,0.626865671641791,0.611940298507463,0.681592039800995,0.666666666666667,0.641791044776119
"12",0.572139303482587,0.577114427860697,0.587064676616915,0.611940298507463,0.641791044776119,0.631840796019901,0.656716417910448
"16",0.567164179104478,0.577114427860697,0.582089552238806,0.661691542288557,0.63681592039801,0.641791044776119,0.671641791044776
"32",0.552238805970149,0.601990049751244,0.626865671641791,0.641791044776119,0.651741293532338,0.63681592039801,0.611940298507463
